…
All 4 chains finished successfully.
Mean chain execution time: 53.5 seconds.
Total execution time: 54.3 seconds.

bym2_fit$summary(
             variables = c(
                 "beta0", "rho", "sigma",
                 "mu[1]", "mu[2]", "mu[3]", "mu[500]", "mu[1000]", "mu[1500]", "mu[1900]",
                 "phi[1]", "phi[2]", "phi[3]", "phi[500]", "phi[1000]", "phi[1500]", "phi[1900]",
                 "theta[1]", "theta[2]", "theta[3]", "theta[500]", "theta[1000]", "theta[1500]", "theta[1900]"));

# A tibble: 24 × 10
   variable   mean median     sd    mad     q5    q95  rhat ess_bulk ess_tail
   <chr>     <num>  <num>  <num>  <num>  <num>  <num> <num>    <num>    <num>
 1 beta0    -6.61  -6.61  0.0232 0.0239 -6.65  -6.57   1.00    2614.    3069.
 2 rho       0.540  0.542 0.0400 0.0408  0.472  0.602  1.01     274.     712.
 3 sigma     1.18   1.18  0.0335 0.0338  1.13   1.24   1.01     401.     941.
 4 mu[1]     1.43   1.21  0.966  0.816   0.334  3.31   1.00    7798.    2934.
 5 mu[2]     1.62   1.39  1.02   0.853   0.445  3.56   1.00    8974.    3177.
 6 mu[3]     0.903  0.738 0.641  0.482   0.211  2.14   1.00    7406.    3457.
 7 mu[500]  21.5   21.1   4.45   4.35   14.6   29.3    1.00    4258.    2706.
 8 mu[1000]  1.71   1.48  1.03   0.872   0.513  3.68   1.00    7397.    3172.
 9 mu[1500]  2.22   1.98  1.20   1.06    0.716  4.53   1.00    7807.    3246.
10 mu[1900]  1.00   0.794 0.757  0.559   0.214  2.46   1.00    5466.    3132.
# ℹ 14 more rows
…
